Curso Primeros Pasos en R
…
```
## # A tibble: 30 x 10
## # Groups:   year [6]
##    year  media mediana    sd    Q1    Q3   min   max asimetria curtosis
##    <chr> <dbl>   <dbl> <dbl> <dbl> <dbl> <dbl> <dbl>     <dbl>    <dbl>
##  1 2015   251.    255.  25.0  236.  268.  208.  208.    -0.261     2.01
##  2 2015   251.    255.  25.0  236.  268.  236.  236.    -0.261     2.01
##  3 2015   251.    255.  25.0  236.  268.  255.  255.    -0.261     2.01
##  4 2015   251.    255.  25.0  236.  268.  268.  268.    -0.261     2.01
##  5 2015   251.    255.  25.0  236.  268.  289.  289.    -0.261     2.01
##  6 2016   220.    214.  16.2  211.  221.  201.  201.     1.33      3.70
##  7 2016   220.    214.  16.2  211.  221.  211.  211.     1.33      3.70
##  8 2016   220.    214.  16.2  211.  221.  214.  214.     1.33      3.70
##  9 2016   220.    214.  16.2  211.  221.  221.  221.     1.33      3.70
## 10 2016   220.    214.  16.2  211.  221.  257.  257.     1.33      3.70
## # ... with 20 more rows
```
…
