Curso Primeros Pasos en R
…
Recordando la clase pasada, los tibble se definen de la misma forma que un data frame. Volviendo al ejemplo anterior:

```r
library(tibble)

tibble_DF1 <- tibble(ID = 1:100,
                     Numero = rnorm(100),
                     Sexo = rbinom(100, 1, 0.4))

tibble_DF1
```

```
## # A tibble: 100 x 3
##       ID Numero  Sexo
##    <int>  <dbl> <int>
##  1     1  2.04      1
##  2     2  0.314     1
##  3     3  0.382     0
##  4     4  0.774     0
##  5     5 -0.145     0
##  6     6 -0.241     1
##  7     7 -0.155     0
##  8     8 -1.09      1
##  9     9  1.51      0
## 10    10  1.91      0
## # ... with 90 more rows
```
…
